{
  "project_info": {
    "project_number": "639176052367",
    "project_id": "mecanicapp-72a16",
    "storage_bucket": "mecanicapp-72a16.appspot.com"
  },
  "client": [
    {
      "client_info": {
        "mobilesdk_app_id": "1:639176052367:android:dd6c122d6804a119c9aafa",
        "android_client_info": {
          "package_name": "com.mecanicapp.mecanicapp"
        }
      },
      "oauth_client": [
        {
          "client_id": "639176052367-q5p0pqa3kh4523eo18tgadfhj4nuck7k.apps.googleusercontent.com",
          "client_type": 3
        }
      ],
      "api_key": [
        {
          "current_key": "AIzaSyCItwu93bxZl3Tz0RMX-M-Jd1Yf2sT-pfQ"
        }
      ],
      "services": {
        "appinvite_service": {
          "other_platform_oauth_client": [
            {
              "client_id": "639176052367-q5p0pqa3kh4523eo18tgadfhj4nuck7k.apps.googleusercontent.com",
              "client_type": 3
            }
          ]
        }
      }
    }
  ],
  "configuration_version": "1"
}